#STM Studio project file - do not edit
#Sun Jul 10 19:58:12 YEKT 2016
Main.Version=1
Root.Child0.IsActive=true
Root.Child0.Name=stm8_stmstudio_demo
Root.Child0.PathRelative=stm8_stmstudio_demo.tsc
Root.Child0.Type=config
Root.ChildNb=1
Root.Name=stm8_stmstudio_demo
Root.Type=folder
